CLRS 3 FROM SMALLK cpu =  0.06 pid = 23029
  3   1   2   2   3   2   1   3   3   1   3   1   2   3   2   1   1   2   2   3 
  3   1   1   3   3   2   1   3   2   3   1   1   3   2   1   3   2   3   3   1 
  3   1   3   2   1   3   1   3   2   2   3   1   1   3   3   2   3   3   1   1 
  2   2   3   1   2   3   1   1   3   3   1   2   3   2   1   2   3   1   1   3 
  2   3   1   2   3   1   3   2   1   3   1   2   3   3   1   1   1   2   3   1 
  2 
CLRS 3 FROM SMALLK cpu =  0.06 pid = 25768
  3   1   2   2   3   2   1   3   3   1   3   1   2   3   2   1   1   2   2   3 
  3   1   1   3   3   2   1   3   2   3   1   1   3   2   1   3   2   3   3   1 
  3   1   3   2   1   3   1   3   2   2   3   1   1   3   3   2   3   3   1   1 
  2   2   3   1   2   3   1   3   3   1   3   2   1   2   1   2   1   3   1   3 
  2   3   1   2   3   1   3   3   1   3   1   3   2   2   1   1   1   2   3   1 
  2 
